Problem set 2 – Research Methods in Public Health
…
lattice theme set by effectsTheme()
See ?effectsTheme for details.

library(epitools)
library(ggplot2)

Warning: package 'ggplot2' was built under R version 4.3.3

library(dplyr)

setwd("C:/Users/barboza-salerno.1/Downloads/")
moderation_example = tibble::as_tibble(read.spss("moderation.sav", use.value.labels = F, to.data.frame = T))
moderation_example

# A tibble: 2,064 × 5
   NSCAWID  tra1 cidi1 bcdel1 sexab
     <dbl> <dbl> <dbl>  <dbl> <dbl>
 1  200003    39    50     56     0
 2  200006    36    49     73    NA
 3  200007    71    74     50     1
 4  200008    47    46     61     0
 5  200011    55    39     50     0
 6  200016    33    46     50     0
 7  200018    61    63     70     0
 8  200021    64    54     51    NA
 9  200025    51    53     57     0
10  200028    58    60     61     1
# ℹ 2,054 more rows
…
`library(dplyr)

moderation_example %>% dplyr::select(tra1, sexab) %>% dplyr::filter(!is.na(sexab))`

etc

moderation_example %>%
  dplyr::select(tra1, sexab) %>%
  dplyr::filter(!is.na(sexab)) %>%
  dplyr::mutate(sex = dplyr::recode(sexab, `1` = "Yes", `0` = "No")) %>%
  dplyr::mutate(PTSD = cut(tra1, breaks = c(33, 64, 88), include.lowest = T, labels = c("No PTSD", "PTSD"))) %>%
  dplyr::select(-sexab, -tra1)

# A tibble: 1,881 × 2
   sex   PTSD   
   <chr> <fct>  
 1 No    No PTSD
 2 Yes   PTSD   
 3 No    No PTSD
 4 No    No PTSD
 5 No    No PTSD
 6 No    No PTSD
 7 No    No PTSD
 8 Yes   No PTSD
 9 No    No PTSD
10 No    No PTSD
# ℹ 1,871 more rows
…
